// Jest Snapshot v1, https://goo.gl/fbAQLP

exports[`Testing Global provider rendering render correctly provider component 1`] = `
Array [
  <div
    className="nigth"
  >
    <div
      className="p p-1"
    />
    <div
      className="p p-2"
    />
    <div
      className="p p-3"
    />
    <div
      className="p p-1"
    />
    <div
      className="p p-2"
    />
    <div
      className="p p-3"
    />
    <div
      className="p p-1"
    />
    <div
      className="p p-2"
    />
    <div
      className="p p-3"
    />
    <div
      className="p p-1"
    />
    <div
      className="p p-2"
    />
    <div
      className="p p-3"
    />
    <div
      className="p p-1"
    />
    <div
      className="p p-2"
    />
    <div
      className="p p-3"
    />
  </div>,
  <div
    style={
      Object {
        "display": "none",
      }
    }
  >
    <audio
      autoPlay={true}
      src="laser.mp3"
    />
  </div>,
  <ul
    className="alert"
  />,
]
`;
